{
  "SpotPrice": "0.133",
  "LaunchSpecification": {
    "ImageId": "ami-34b71f22",
    "InstanceType": "r4.large",
    "KeyName": "aws_key",
    "EbsOptimized": false,
    "BlockDeviceMappings": [
      {
        "DeviceName": "/dev/sda1",
        "Ebs": {
          "DeleteOnTermination": true,
          "VolumeType": "gp2",
          "VolumeSize": 20,
          "SnapshotId": "snap-78f529f3"
        }
      }
    ],
    "NetworkInterfaces": [
      {
        "DeviceIndex": 0,
        "SubnetId": "subnet-73d55e4f",
        "DeleteOnTermination": true,
        "Groups": [
          "sg-1608d969"
        ],
        "AssociatePublicIpAddress": true
      }
    ]
  },
  "InstanceCount": 1,
  "BlockDurationMinutes": 60
}
